Main components of an R-package
…
An example: the Bromeliaceae

data
geometry
map

library(bromeliad)

taxonomy_traits

# A tibble: 3,272 × 12
   tax_accepted_name  tax_genus tax_tribus tax_subfamily geo_range conv_conr_eoo
   <chr>              <chr>     <chr>      <chr>             <dbl>         <dbl>
 1 Acanthostachys pi… Acanthos… <NA>       Bromelioideae      7695            NA
 2 Acanthostachys st… Acanthos… <NA>       Bromelioideae    613125        842084
 3 Aechmea abbreviat… Aechmea   <NA>       Bromelioideae     15625         20504
 4 Aechmea aculeatos… Aechmea   <NA>       Bromelioideae     11499         11499
 5 Aechmea aenigmati… Aechmea   <NA>       Bromelioideae      7436            NA
 6 Aechmea aguadocen… Aechmea   <NA>       Bromelioideae      7701            NA
 7 Aechmea aiuruocen… Aechmea   <NA>       Bromelioideae      7705            NA
 8 Aechmea alba Mez   Aechmea   <NA>       Bromelioideae     89375         80897
 9 Aechmea alegrensi… Aechmea   <NA>       Bromelioideae      7703            NA
10 Aechmea alopecuru… Aechmea   <NA>       Bromelioideae     27649         27650
# ℹ 3,262 more rows
# ℹ 6 more variables: conv_conr_aoo <dbl>, conv_conr_pop <dbl>,
#   conv_conr_code <chr>, conv_conr_stat <chr>, tr_growth_form <chr>,
#   tax_canonical <chr>
…
data/

The datasets distributed with the package. Can be example data or the purpose of the package.

Can be any object that can be loaded into R such as tables, shape files, …

taxonomy_traits

# A tibble: 3,272 × 12
   tax_accepted_name  tax_genus tax_tribus tax_subfamily geo_range conv_conr_eoo
   <chr>              <chr>     <chr>      <chr>             <dbl>         <dbl>
 1 Acanthostachys pi… Acanthos… <NA>       Bromelioideae      7695            NA
 2 Acanthostachys st… Acanthos… <NA>       Bromelioideae    613125        842084
 3 Aechmea abbreviat… Aechmea   <NA>       Bromelioideae     15625         20504
 4 Aechmea aculeatos… Aechmea   <NA>       Bromelioideae     11499         11499
 5 Aechmea aenigmati… Aechmea   <NA>       Bromelioideae      7436            NA
 6 Aechmea aguadocen… Aechmea   <NA>       Bromelioideae      7701            NA
 7 Aechmea aiuruocen… Aechmea   <NA>       Bromelioideae      7705            NA
 8 Aechmea alba Mez   Aechmea   <NA>       Bromelioideae     89375         80897
 9 Aechmea alegrensi… Aechmea   <NA>       Bromelioideae      7703            NA
10 Aechmea alopecuru… Aechmea   <NA>       Bromelioideae     27649         27650
# ℹ 3,262 more rows
# ℹ 6 more variables: conv_conr_aoo <dbl>, conv_conr_pop <dbl>,
#   conv_conr_code <chr>, conv_conr_stat <chr>, tr_growth_form <chr>,
#   tax_canonical <chr>
…
